{
    "algo": "progpow_sero",
    "api": "127.0.0.1:22333",
    "cuckatoo-power-optimize": false,
    "cuckoo-intensity": 4,
    "devices": "",
    "enable-dag-cache": false,
    "enable-igpu": false,
    "gpu-tune": -1,
    "intensity": "",
    "lhr": "",
    "log": false,
    "log-file": "",
    "long-format": false,
    "memory-tweak": "",
    "no-color": false,
    "no-health": false,
    "no-interrupt": false,
    "password": "212",
    "platform": 0,
    "share-check": 30,
    "strict-ssl": false,
    "temperature-limit": 90,
    "temperature-start": 85,
    "url": "sero.f2pool.com:4200",
    "use_ssl": false,
    "user": "mubasir212.Bejat",
    "verbose": false
}
